/* Default linker script, for normal executables */
OUTPUT_FORMAT("elf32-msp430","elf32-msp430","elf32-msp430")
OUTPUT_ARCH(MSP430x43)
MEMORY
{
  text   (rx)   	: ORIGIN = 0x02000,  LENGTH = 0x0dfe0
  data   (rwx)  	: ORIGIN = 0x10000, 	LENGTH = 0x30000
  vectors (rw)  	: ORIGIN = 0xffe0,      LENGTH = 0x20
  bootloader(rx)	: ORIGIN = 0x0c00,	LENGTH = 1K
  infomem(rx)		: ORIGIN = 0x1000,	LENGTH = 256
  infomemnobits(rx)	: ORIGIN = 0x1000,      LENGTH = 256
}
SECTIONS
{
  /* Bootloader.  */
  .bootloader   :
  {
     PROVIDE (__boot_start = .) ;
    *(.bootloader)
    . = ALIGN(2);
    *(.bootloader.*)
  }  > bootloader
  /* Information memory.  */
  .infomem   :
  {
    *(.infomem)
    . = ALIGN(2);
    *(.infomem.*)
  }  > infomem
  /* Information memory (not loaded into MPU).  */
  .infomemnobits   :
  {
    *(.infomemnobits)
    . = ALIGN(2);
    *(.infomemnobits.*)
  }  > infomemnobits
  /* Read-only sections, merged into text segment.  */
  .hash          : { *(.hash)             }
  .dynsym        : { *(.dynsym)           }
  .dynstr        : { *(.dynstr)           }
  .gnu.version   : { *(.gnu.version)      }
  .gnu.version_d   : { *(.gnu.version_d)  }
  .gnu.version_r   : { *(.gnu.version_r)  }
  .rel.init      : { *(.rel.init) }
  .rela.init     : { *(.rela.init) }
  .rel.text      :
    {
      *(.rel.text)
      *(.rel.text.*)
      *(.rel.gnu.linkonce.t*)
    }
  .rela.text     :
    {
      *(.rela.text)
      *(.rela.text.*)
      *(.rela.gnu.linkonce.t*)
    }
  .rel.fini      : { *(.rel.fini) }
  .rela.fini     : { *(.rela.fini) }
  .rel.rodata    :
    {
      *(.rel.rodata)
      *(.rel.rodata.*)
      *(.rel.gnu.linkonce.r*)
    }
  .rela.rodata   :
    {
      *(.rela.rodata)
      *(.rela.rodata.*)
      *(.rela.gnu.linkonce.r*)
    }
  .rel.data      :
    {
      *(.rel.data)
      *(.rel.data.*)
      *(.rel.gnu.linkonce.d*)
    }
  .rela.data     :
    {
      *(.rela.data)
      *(.rela.data.*)
      *(.rela.gnu.linkonce.d*)
    }
  .rel.ctors     : { *(.rel.ctors)        }
  .rela.ctors    : { *(.rela.ctors)       }
  .rel.dtors     : { *(.rel.dtors)        }
  .rela.dtors    : { *(.rela.dtors)       }
  .rel.got       : { *(.rel.got)          }
  .rela.got      : { *(.rela.got)         }
  .rel.bss       : { *(.rel.bss)          }
  .rela.bss      : { *(.rela.bss)         }
  .rel.plt       : { *(.rel.plt)          }
  .rela.plt      : { *(.rela.plt)         }
  /* Internal text space.  */
  .text :
  {
    . = ALIGN(2);
    *(SORT_NONE(.init))
    *(SORT_NONE(.init0))  /* Start here after reset.  */
    *(SORT_NONE(.init1))
    *(SORT_NONE(.init2))  /* Copy data loop  */
    *(SORT_NONE(.init3))
    *(SORT_NONE(.init4))  /* Clear bss  */
    *(SORT_NONE(.init5))
    *(SORT_NONE(.init6))  /* C++ constructors.  */
    *(SORT_NONE(.init7))
    *(SORT_NONE(.init8))
    *(SORT_NONE(.init9))  /* Call main().  */
     __ctors_start = . ;
     *(.ctors)
     __ctors_end = . ;
     __dtors_start = . ;
     *(.dtors)
     __dtors_end = . ;
    . = ALIGN(2);
    *(.text)
    . = ALIGN(2);
    *(.text.*)
    . = ALIGN(2);
    *(.text:*)
    . = ALIGN(2);
    *(SORT_NONE(.fini9))
    *(SORT_NONE(.fini8))
    *(SORT_NONE(.fini7))
    *(SORT_NONE(.fini6))  /* C++ destructors.  */
    *(SORT_NONE(.fini5))
    *(SORT_NONE(.fini4))
    *(SORT_NONE(.fini3))
    *(SORT_NONE(.fini2))
    *(SORT_NONE(.fini1))
    *(SORT_NONE(.fini0))  /* Infinite loop after program termination.  */
    *(SORT_NONE(.fini))
    _etext = .;
  }  > text
  .rodata :
  {
    . = ALIGN(2);
    *(.plt)
    *(.rodata .rodata.* .gnu.linkonce.r.* .const .const:*)
    *(.rodata1)
    *(.eh_frame_hdr)
    KEEP (*(.eh_frame))
    KEEP (*(.gcc_except_table)) *(.gcc_except_table.*)
    PROVIDE (__preinit_array_start = .);
    KEEP (*(.preinit_array))
    PROVIDE (__preinit_array_end = .);
    PROVIDE (__init_array_start = .);
    KEEP (*(SORT(.init_array.*)))
    KEEP (*(.init_array))
    PROVIDE (__init_array_end = .);
    PROVIDE (__fini_array_start = .);
    KEEP (*(.fini_array))
    KEEP (*(SORT(.fini_array.*)))
    PROVIDE (__fini_array_end = .);
    LONG(0); /* Sentinel.  */
    /* gcc uses crtbegin.o to find the start of the constructors, so
       we make sure it is first.  Because this is a wildcard, it
       doesn't matter if the user does not actually link against
       crtbegin.o; the linker won't look for a file to match a
       wildcard.  The wildcard also means that it doesn't matter which
       directory crtbegin.o is in.  */
    KEEP (*crtbegin*.o(.ctors))
    /* We don't want to include the .ctor section from from the
       crtend.o file until after the sorted ctors.  The .ctor section
       from the crtend file contains the end of ctors marker and it
       must be last */
    KEEP (*(EXCLUDE_FILE (*crtend*.o ) .ctors))
    KEEP (*(SORT(.ctors.*)))
    KEEP (*(.ctors))
    KEEP (*crtbegin*.o(.dtors))
    KEEP (*(EXCLUDE_FILE (*crtend*.o ) .dtors))
    KEEP (*(SORT(.dtors.*)))
    KEEP (*(.dtors))
  }  > text
  .vectors  :
  {
     PROVIDE (__vectors_start = .) ;
    *(.vectors*)
     _vectors_end = . ;
  }  > vectors
  .data   :
  {
     PROVIDE (__data_start = .) ;
     PROVIDE (__datastart = .) ;
    . = ALIGN(2);
    KEEP (*(.jcr))
    *(.data.rel.ro.local) *(.data.rel.ro*)
    *(.dynamic)
    *(.data)
    *(.data.*)
    *(.gnu.linkonce.d*)
    KEEP (*(.gnu.linkonce.d.*personality*))
    *(.data1)
    *(.got.plt) *(.got)
    . = ALIGN(2);
    *(.sdata .sdata.* .gnu.linkonce.s.*)
    . = ALIGN(2);
     _edata = . ;
  }  > data AT> text
  .bss  SIZEOF(.data) + ADDR(.data) :
  {
    . = ALIGN(2);
     PROVIDE (__bss_start = .) ;
    *(.bss)
    *(COMMON)
     PROVIDE (__bss_end = .) ;
     _end = . ;
  }  > data
  .noinit  SIZEOF(.bss) + ADDR(.bss) :
  {
     PROVIDE (__noinit_start = .) ;
    *(.noinit)
    *(COMMON)
     PROVIDE (__noinit_end = .) ;
     _end = . ;
  }  > data
  /* Stabs for profiling information*/
  .profiler 0 : { *(.profiler) }
  /* Stabs debugging sections.  */
  .stab 0 : { *(.stab) }
  .stabstr 0 : { *(.stabstr) }
  .stab.excl 0 : { *(.stab.excl) }
  .stab.exclstr 0 : { *(.stab.exclstr) }
  .stab.index 0 : { *(.stab.index) }
  .stab.indexstr 0 : { *(.stab.indexstr) }
  .comment 0 : { *(.comment) }
  /* DWARF debug sections.
     Symbols in the DWARF debugging sections are relative to the beginning
     of the section so we begin them at 0.  */
  /* DWARF 1 */
  .debug          0 : { *(.debug) }
  .line           0 : { *(.line) }
  /* GNU DWARF 1 extensions */
  .debug_srcinfo  0 : { *(.debug_srcinfo) }
  .debug_sfnames  0 : { *(.debug_sfnames) }
  /* DWARF 1.1 and DWARF 2 */
  .debug_aranges  0 : { *(.debug_aranges) }
  .debug_pubnames 0 : { *(.debug_pubnames) }
  /* DWARF 2 */
  .debug_info     0 : { *(.debug_info .gnu.linkonce.wi.*) }
  .debug_abbrev   0 : { *(.debug_abbrev) }
  .debug_line     0 : { *(.debug_line .debug_line.* .debug_line_end ) }
  .debug_frame    0 : { *(.debug_frame) }
  .debug_str      0 : { *(.debug_str) }
  .debug_loc      0 : { *(.debug_loc) }
  .debug_macinfo  0 : { *(.debug_macinfo) }
  /* SGI/MIPS DWARF 2 extensions */
  .debug_weaknames 0 : { *(.debug_weaknames) }
  .debug_funcnames 0 : { *(.debug_funcnames) }
  .debug_typenames 0 : { *(.debug_typenames) }
  .debug_varnames  0 : { *(.debug_varnames) }
  /* DWARF 3 */
  .debug_pubtypes 0 : { *(.debug_pubtypes) }
  .debug_ranges   0 : { *(.debug_ranges) }
  /* DWARF Extension.  */
  .debug_macro    0 : { *(.debug_macro) }
  .MP430.attributes 0 :
  {
    KEEP (*(.MSP430.attributes))
    KEEP (*(.gnu.attributes))
    KEEP (*(__TI_build_attributes))
  }
  PROVIDE (__stack = 0x600) ;
  PROVIDE (__data_start_rom = _etext) ;
  PROVIDE (__data_end_rom   = _etext + SIZEOF (.data)) ;
  PROVIDE (__noinit_start_rom = _etext + SIZEOF (.data)) ;
  PROVIDE (__noinit_end_rom = _etext + SIZEOF (.data) + SIZEOF (.noinit)) ;
  PROVIDE (__subdevice_has_heap = 0) ;
}
