/* Default linker script, for normal executables */
OUTPUT_FORMAT("elf32-shl-symbian", "elf32-shl-symbian",
	      "elf32-shl-symbian")
OUTPUT_ARCH(sh)
ENTRY(start)
/* Do we need any of these for elf?
   __DYNAMIC = 0;    */
PHDRS
{
  headers PT_PHDR PHDRS ;
  text    PT_LOAD ;
  data    PT_LOAD ;
  dyn     PT_LOAD FLAGS (0) ;
  dynamic PT_DYNAMIC ;
}
SECTIONS
{
  /* Read-only sections, merged into text segment: */
  . = 0x1000;
  .interp    ALIGN(4) : { *(.interp) }
  .init ALIGN(4) :
  {
    KEEP (*(.init))
  } :text =0
  .text ALIGN(4) :
  {
    *(.text .stub .text.* .gnu.linkonce.t.*)
    /* .gnu.warning sections are handled specially by elf32.em.  */
    *(.gnu.warning)
  } =0
  .ctors     ALIGN(4) :
  {
    __ctors = .;
    /* gcc uses crtbegin.o to find the start of
       the constructors, so we make sure it is
       first.  Because this is a wildcard, it
       doesn't matter if the user does not
       actually link against crtbegin.o; the
       linker won't look for a file to match a
       wildcard.  The wildcard also means that it
       doesn't matter which directory crtbegin.o
       is in.  */
    KEEP (*crtbegin.o(.ctors))
    KEEP (*crtbegin?.o(.ctors))
    /* We don't want to include the .ctor section from
       the crtend.o file until after the sorted ctors.
       The .ctor section from the crtend file contains the
       end of ctors marker and it must be last */
    KEEP (*(EXCLUDE_FILE (*crtend.o *crtend?.o ) .ctors))
    KEEP (*(SORT(.ctors.*)))
    KEEP (*(.ctors))
    __ctors_end = .;
  } :text
  .dtors        ALIGN(4) :
  {
    __dtors = .;
    KEEP (*crtbegin.o(.dtors))
    KEEP (*crtbegin?.o(.dtors))
    KEEP (*(EXCLUDE_FILE (*crtend.o *crtend?.o ) .dtors))
    KEEP (*(SORT(.dtors.*)))
    KEEP (*(.dtors))
    __dtors_end = .;
  } :text
  .fini ALIGN(4) :
  {
    KEEP (*(.fini))
  } =0
  PROVIDE (__etext = .);
  PROVIDE (_etext = .);
  PROVIDE (etext = .);
  .rodata    ALIGN(4) : { *(.rodata .rodata.* .gnu.linkonce.r.*) }
  .rodata1 ALIGN(4) : { *(.rodata1) }
  ExportTable  ALIGN(4) : { KEEP (*(ExportTable)) }
  .eh_frame_hdr ALIGN(4) : { *(.eh_frame_hdr) } :text
  /* Adjust the address for the data segment.  We want to adjust up to
     the same address within the page on the next page up.  */
  . = ALIGN(128) + (. & (128 - 1));
  .preinit_array     :
  {
    PROVIDE_HIDDEN (__preinit_array_start = .);
    KEEP (*(.preinit_array))
    PROVIDE_HIDDEN (__preinit_array_end = .);
  }
  .init_array     :
  {
     PROVIDE_HIDDEN (__init_array_start = .);
     KEEP (*(SORT(.init_array.*)))
     KEEP (*(.init_array))
     PROVIDE_HIDDEN (__init_array_end = .);
  }
  .fini_array     :
  {
    PROVIDE_HIDDEN (__fini_array_start = .);
    KEEP (*(SORT(.fini_array.*)))
    KEEP (*(.fini_array))
    PROVIDE_HIDDEN (__fini_array_end = .);
  }
  . = ALIGN(128) + (. & (128 - 1));
  .data  ALIGN(4) :
  {
    *(.data .data.* .gnu.linkonce.d.*)
    SORT(CONSTRUCTORS)
  } :data
  .data1            ALIGN(4) : { *(.data1) } :data
  .tdata	    ALIGN(4) : { *(.tdata .tdata.* .gnu.linkonce.td.*) } :data
  .tbss		    ALIGN(4) : { *(.tbss .tbss.* .gnu.linkonce.tb.*) *(.tcommon) } :data
  .eh_frame         ALIGN(4) : { KEEP (*(.eh_frame)) } :data
  .gcc_except_table ALIGN(4) : { *(.gcc_except_table) } :data
  _edata = .;
  PROVIDE (edata = .);
  __bss_start = .;
  .bss  ALIGN(4) :
  {
   *(.dynbss)
   *(.bss .bss.* .gnu.linkonce.b.*)
   *(COMMON)
   /* Align here to ensure that the .bss section occupies space up to
      _end.  Align after .bss to ensure correct alignment even if the
      .bss section disappears because there are no input sections.  */
   . = ALIGN(32 / 8);
  } :data
  . = ALIGN(32 / 8);
  _end = .;
  PROVIDE (end = .);
  .dynamic        : { *(.dynamic) } :dynamic :dyn
  .hash           : { *(.hash) } :dynamic :dyn
  .dynsym         : { *(.dynsym) } :dynamic :dyn
  .dynstr         : { *(.dynstr) } :dynamic :dyn
  .plt            : { *(.plt) } :dynamic :dyn
  .got.plt	  : { *(.got.plt) } :dynamic :dyn
  .gnu.version    : { *(.gnu.version) }
  .gnu.version_d  : { *(.gnu.version_d) }
  .gnu.version_r  : { *(.gnu.version_r) }
  .rel.init       : { *(.rel.init) }
  .rela.init      : { *(.rela.init) }
  .rel.text       : { *(.rel.text .rel.text.* .rel.gnu.linkonce.t.*) }
  .rela.text      : { *(.rela.text .rela.text.* .rela.gnu.linkonce.t.*) }
  .rel.fini       : { *(.rel.fini) }
  .rela.fini      : { *(.rela.fini) }
  .rel.rodata     : { *(.rel.rodata .rel.rodata.* .rel.gnu.linkonce.r.*) }
  .rela.rodata    : { *(.rela.rodata .rela.rodata.* .rela.gnu.linkonce.r.*) }
  .rel.data       : { *(.rel.data .rel.data.* .rel.gnu.linkonce.d.*) }
  .rela.data      : { *(.rela.data .rela.data.* .rela.gnu.linkonce.d.*) }
  .rel.tdata	  : { *(.rel.tdata .rel.tdata.* .rel.gnu.linkonce.td.*) }
  .rela.tdata	  : { *(.rela.tdata .rela.tdata.* .rela.gnu.linkonce.td.*) }
  .rel.tbss	  : { *(.rel.tbss .rel.tbss.* .rel.gnu.linkonce.tb.*) }
  .rela.tbss	  : { *(.rela.tbss .rela.tbss.* .rela.gnu.linkonce.tb.*) }
  .rel.ctors      : { *(.rel.ctors) }
  .rela.ctors     : { *(.rela.ctors) }
  .rel.dtors      : { *(.rel.dtors) }
  .rela.dtors     : { *(.rela.dtors) }
  .rel.got        : { *(.rel.got) }
  .rela.got       : { *(.rela.got) }
  .rel.bss        : { *(.rel.bss .rel.bss.* .rel.gnu.linkonce.b.*) }
  .rela.bss       : { *(.rela.bss .rela.bss.* .rela.gnu.linkonce.b.*) }
  .rel.plt        : { *(.rel.plt) }
  .rela.plt       : { *(.rela.plt) }
  /* Stabs debugging sections.  */
  .stab          0 : { *(.stab) }
  .stabstr       0 : { *(.stabstr) }
  .stab.excl     0 : { *(.stab.excl) }
  .stab.exclstr  0 : { *(.stab.exclstr) }
  .stab.index    0 : { *(.stab.index) }
  .stab.indexstr 0 : { *(.stab.indexstr) }
  .comment       0 : { *(.comment) }
  /* DWARF debug sections.
     Symbols in the DWARF debugging sections are relative to the beginning
     of the section so we begin them at 0.  */
  /* DWARF 1 */
  .debug          0 : { *(.debug) }
  .line           0 : { *(.line) }
  /* GNU DWARF 1 extensions */
  .debug_srcinfo  0 : { *(.debug_srcinfo) }
  .debug_sfnames  0 : { *(.debug_sfnames) }
  /* DWARF 1.1 and DWARF 2 */
  .debug_aranges  0 : { *(.debug_aranges) }
  .debug_pubnames 0 : { *(.debug_pubnames) }
  /* DWARF 2 */
  .debug_info     0 : { *(.debug_info .gnu.linkonce.wi.*) }
  .debug_abbrev   0 : { *(.debug_abbrev) }
  .debug_line     0 : { *(.debug_line .debug_line.* .debug_line_end ) }
  .debug_frame    0 : { *(.debug_frame) }
  .debug_str      0 : { *(.debug_str) }
  .debug_loc      0 : { *(.debug_loc) }
  .debug_macinfo  0 : { *(.debug_macinfo) }
  /* SGI/MIPS DWARF 2 extensions */
  .debug_weaknames 0 : { *(.debug_weaknames) }
  .debug_funcnames 0 : { *(.debug_funcnames) }
  .debug_typenames 0 : { *(.debug_typenames) }
  .debug_varnames  0 : { *(.debug_varnames) }
  /* DWARF 3 */
  .debug_pubtypes 0 : { *(.debug_pubtypes) }
  .debug_ranges   0 : { *(.debug_ranges) }
  /* DWARF Extension.  */
  .debug_macro    0 : { *(.debug_macro) }
  .gnu.attributes 0 : { KEEP (*(.gnu.attributes)) }
  PROVIDE (_stack = 0x30000);
  /DISCARD/ : { *(.note.GNU-stack) *(.gnu_debuglink) *(.directive)  *(.gnu.lto_*) }
}
